Lab 10 - Using R Markdown
…
## The following objects are masked from 'package:base':
## 
##     intersect, setdiff, setequal, union

library("gapminder")
library("ggplot2")

gdp_table <- gapminder %>%
  group_by(year, continent) %>%
  summarize(av_gdp_per_cap = mean(gdpPercap))

gdp_table

## # A tibble: 60 x 3
## # Groups:   year [12]
##     year continent av_gdp_per_cap
##    <int> <fct>              <dbl>
##  1  1952 Africa             1253.
##  2  1952 Americas           4079.
##  3  1952 Asia               5195.
##  4  1952 Europe             5661.
##  5  1952 Oceania           10298.
##  6  1957 Africa             1385.
##  7  1957 Americas           4616.
##  8  1957 Asia               5788.
##  9  1957 Europe             6963.
## 10  1957 Oceania           11599.
## #  with 50 more rows
…
